\relax 
\citation{Bader06}
\citation{Demir10}
\citation{Cerami11}
\citation{Kanehisa00}
\citation{Schaefer09}
\citation{Croft14}
\citation{Kelder12}
\citation{Kandasamy10}
\citation{Demir13}
\citation{Rodchenkov13}
\citation{Babur14}
\citation{Babur10}
\citation{LeNovere09}
\citation{Hucka03}
\citation{Nagasaki09}
\citation{Ciocchetta09}
\citation{Hucka03}
\newlabel{^_1}{{}{1}}
\select@language{british}
\@writefile{toc}{\select@language{british}}
\@writefile{lof}{\select@language{british}}
\@writefile{lot}{\select@language{british}}
\@writefile{toc}{\contentsline {section}{\numberline {1}Introduction}{1}}
\citation{Chaouiya13}
\@writefile{lof}{\contentsline {figure}{\numberline {1}{\ignorespaces Inputs and output of BioASF. Inputs are a pathway description in BioPAX, initial concentration values of physical entities such as proteins, and rules governing the execution of interactions and the analysis of simulation results. The output is a multi-agent system which is automatically generated by BioASF and is responsible for executing BioPAX interactions.}}{2}}
\newlabel{fig:overview}{{1}{2}}
\citation{Bechhofer04}
\citation{Demir10}
\citation{Anwar10}
\citation{Anwar10}
\citation{Cassandras09}
\citation{Wooldridge09}
\@writefile{toc}{\contentsline {section}{\numberline {2}METHODS}{3}}
\@writefile{toc}{\contentsline {subsection}{\numberline {{2.1}}The BioPAX Language}{3}}
\@writefile{lof}{\contentsline {figure}{\numberline {2}{\ignorespaces A snapshot from the Prot\'eg\'e OWL editor~(\url {http://protege.stanford.edu/overview/protege-owl.html}) showing the core concepts of the BioPAX language and their hierarchical relationships.}}{3}}
\newlabel{fig:biopax-lang}{{2}{3}}
\@writefile{toc}{\contentsline {subsection}{\numberline {{2.2}}Architecture of the Framework}{3}}
\@writefile{lof}{\contentsline {figure}{\numberline {3}{\ignorespaces High level architecture of BioASF showing how different agents communicate with each other by exchanging events. Events are numbered chronologically.}}{3}}
\newlabel{fig:architecture}{{3}{3}}
\citation{Apache09}
\citation{Apache05}
\citation{Demir13}
\citation{Albert03}
\citation{Davidich08}
\@writefile{toc}{\contentsline {subsection}{\numberline {{2.3}}Artifacts of the Framework}{4}}
\@writefile{lof}{\contentsline {figure}{\numberline {4}{\ignorespaces Meta-model layer and model layer artifacts of BioASF showing how the multi-agent system code in Java is generated for simulating the biological pathway specified in a given BioPAX model.}}{4}}
\newlabel{fig:artifacts}{{4}{4}}
\@writefile{toc}{\contentsline {subsection}{\numberline {{2.4}}Flexibility of the Framework}{4}}
\newlabel{subsec:flexibility}{{{2.4}}{4}}
\citation{Garg08}
\citation{Garg08}
\citation{Burhard83}
\citation{Bonzanni09b}
\citation{Faure06}
\citation{Garg08}
\citation{Bonzanni09b}
\citation{Bonzanni09b}
\citation{Bonzanni13}
\citation{Bonzanni13}
\citation{Jacobsen15}
\citation{Jacobsen16}
\citation{Bonzanni13}
\citation{Jacobsen15}
\citation{Jacobsen16}
\citation{Bonzanni13}
\citation{Babur10}
\citation{Babur10}
\citation{Bonzanni09a}
\citation{Bonzanni13}
\@writefile{toc}{\contentsline {section}{\numberline {3}RESULTS}{5}}
\@writefile{toc}{\contentsline {subsection}{\numberline {{3.1}}Gene Regulatory Simulation}{5}}
\@writefile{toc}{\contentsline {subsubsection}{\numberline {{{3.1}.1}}Model Description}{5}}
\@writefile{toc}{\contentsline {subsubsection}{\numberline {{{3.1}.2}}BioPAX Representation}{5}}
\@writefile{toc}{\contentsline {subsubsection}{\numberline {{{3.1}.3}}Simulation Rules}{5}}
\citation{Bonzanni09a}
\citation{Bonzanni13}
\citation{Jacobsen15}
\citation{Jacobsen16}
\citation{Babur10}
\@writefile{lof}{\contentsline {figure}{\numberline {5}{\ignorespaces {\color {blue}\uwave  {SBGN representation of the haematopoiesis gene regulatory network generated by ChiBE~\unhbox \voidb@x \hbox {\citep  {Babur10} }based on our BioPAX model. The highlighted part of the graph corresponds to the part of the BioPAX model depicted in Figure~\ref  {fig:biopax-hemato}.}}}}{6}}
\newlabel{fig:hemato}{{5}{6}}
\@writefile{lof}{\contentsline {figure}{\numberline {6}{\ignorespaces Part of the BioPAX model for the haematopoiesis gene regulatory network.}}{6}}
\newlabel{fig:biopax-hemato}{{6}{6}}
\@writefile{toc}{\contentsline {subsubsection}{\numberline {{{3.1}.4}}Model Analysis}{6}}
\@writefile{lot}{\contentsline {table}{\numberline {1}{\ignorespaces The result of the analysis of the haematopoiesis simulation. Each row shows a TSCC (i.e., stable state) in which genes (the columns 2-11) have been switched on (1) or off (0).}}{6}}
\newlabel{tab:hamato}{{1}{6}}
\@writefile{toc}{\contentsline {subsection}{\numberline {{3.2}}Signal Transduction Simulation}{6}}
\@writefile{toc}{\contentsline {subsubsection}{\numberline {{{3.2}.1}}Model Description}{6}}
\@writefile{toc}{\contentsline {subsubsection}{\numberline {{{3.2}.2}}BioPAX Representation}{6}}
\citation{Jacobsen15}
\citation{Jacobsen16}
\citation{Jacobsen15}
\citation{Jacobsen16}
\@writefile{lof}{\contentsline {figure}{\numberline {7}{\ignorespaces SBGN representation of the WNT/$\beta $-catenin signaling pathway generated by ChiBE~\citep  {Babur10} based on our BioPAX model. The highlighted part of the graph corresponds to the part of the BioPAX model depicted in Figure~\ref  {fig:biopax-wnt}.}}{7}}
\newlabel{fig:wnt-pathway}{{7}{7}}
\@writefile{toc}{\contentsline {subsubsection}{\numberline {{{3.2}.3}}Simulation Rules}{7}}
\@writefile{lof}{\contentsline {figure}{\numberline {8}{\ignorespaces Part of the BioPAX model for the WNT/$\beta $-catenin signaling pathway.}}{7}}
\newlabel{fig:biopax-wnt}{{8}{7}}
\@writefile{toc}{\contentsline {subsubsection}{\numberline {{{3.2}.4}}Model Analysis}{7}}
\citation{Jacobsen16}
\citation{Horrocks04}
\citation{Martin04}
\bibcite{Albert03}{{1}{2003}{{Albert and Othmer}}{{ Albert, Othmer}}}
\@writefile{lof}{\contentsline {figure}{\numberline {9}{\ignorespaces The {\color {red}\sout  {different }}CTNNB1 ($\beta $-catenin) levels {\color {red}\sout  {obtained from 50 simulations of the WNT/$\beta $-catenin BioPAX model with }}{\color {blue}\uwave  {for }}initial WNT levels from 0 to 5 {\color {blue}\uwave  {simulated 50 times }}over 100 steps {\color {blue}\uwave  {using BioASF and Petri-net~\unhbox \voidb@x \hbox {\citep  {Jacobsen16}}, respectively}}.}}{8}}
\newlabel{fig:wnt-plot}{{9}{8}}
\@writefile{toc}{\contentsline {section}{\numberline {4}DISCUSSION}{8}}
\@writefile{toc}{\contentsline {paragraph}{Funding\text  {\rm  :}}{8}}
\bibcite{Anwar10}{{2}{2010}{{Anwar}}{{ Anwar, Bader, Demir, Donaldson, Rodchenkov}}}
\bibcite{Apache09}{{3}{2009}{{Apache}}{{ Apache}}}
\bibcite{Apache05}{{4}{2005}{{Apache}}{{ Apache}}}
\bibcite{Babur10}{{5}{2010}{{Babur {\em  et~al.}}}{{ Babur, Dogrusoz, Demir, Sander}}}
\bibcite{Babur14}{{6}{2014}{{Babur {\em  et~al.}}}{{ Babur, Aksoy, Rodchenkov, S{\"u}mer, Sander, Demir}}}
\bibcite{Bader06}{{7}{2006}{{Bader {\em  et~al.}}}{{ Bader, Cary, Sander}}}
\bibcite{Bechhofer04}{{8}{2004}{{Bechhofer}}{{ Bechhofer, van Harmelen, Hendler, Horrocks,McGuinness, Patel-Schneider, Stein}}}
\bibcite{Bonzanni09a}{{9}{2009a}{{Bonzanni {\em  et~al.}}}{{Bonzanni, Feenstra, Fokkink, and Krepska}}}
\bibcite{Bonzanni09b}{{10}{2009b}{{Bonzanni {\em  et~al.}}}{{Bonzanni, Krepska, Feenstra, Fokkink, Kielmann, Bal, and Heringa}}}
\bibcite{Bonzanni13}{{11}{2013}{{Bonzanni {\em  et~al.}}}{{Bonzanni, Garg, Feenstra, Sch{\"u}tte, Kinston, Miranda-Saavedra, Heringa, Xenarios, G\"ottgens}}}
\bibcite{Burhard83}{{12}{1983}{{Burhard}}{{Burhard}}}
\bibcite{Cassandras09}{{13}{2009}{{Cassandras {\em  et~al.}}}{{ Cassandras and Lafortune}}}
\bibcite{Cerami11}{{14}{2011}{{Cerami {\em  et~al.}}}{{ Cerami, Gross, Demir, Rodchenkov, Babur, et al.}}}
\bibcite{Chaouiya13}{{15}{2013}{{Chaouiya {\em  et~al.}}}{{ Chaouiya, B{\`e}renguier, Keating, Naldi, et al.}}}
\bibcite{Ciocchetta09}{{16}{2009}{{Ciocchetta {\em  et~al.}}}{{ Ciocchetta, Hillston}}}
\bibcite{Croft14}{{17}{2014}{{Croft {\em  et~al.}}}{{ Croft, Mundo, Haw, Milacic, et al.}}}
\bibcite{Davidich08}{{18}{2008}{{Davidich and Bornholdt}}{{ Davidich, Bornholdt}}}
\bibcite{Demir10}{{19}{2010}{{Demir {\em  et~al.}}}{{ Demir, Cary, Paley, Fukuda, Lemer, et al.}}}
\bibcite{Demir13}{{20}{2013}{{Demir {\em  et~al.}}}{{ Demir, Babur, Rodchenkov, Aksoy,Fukuda, Gross, S{\"u}mer, Bader, Sander}}}
\bibcite{Faure06}{{21}{2006}{{Faur{\'e} {\em  et~al.}}}{{ Faur{\'e}, Naldi, Chaouiya, Thieffry}}}
\bibcite{Garg08}{{22}{2008}{{Garg {\em  et~al.}}}{{ Garg, Di~Cara, Xenarios, Mendoza, De~Micheli}}}
\bibcite{Horrocks04}{{23}{2004}{{Horrocks {\em  et~al.}}}{{ Horrocks, Patel-Schneider, Boley, Tabet, Grosof, Dean}}}
\bibcite{Hucka03}{{24}{2003}{{Hucka {\em  et~al.}}}{{ Hucka, Finney, Xenarios, Sauro, Bolouri}}}
\bibcite{Jacobsen16}{{25}{2016}{{Jacobsen {\em  et~al.}}}{{ Jacobsen, Heijmans, Amerongen, Verkaar, Smit, Heringa, Feenstra}}}
\bibcite{Kandasamy10}{{26}{2010}{{Kandasamy {\em  et~al.}}}{{ Kandasamy, Mohan}}}
\bibcite{Kanehisa00}{{27}{2000}{{Kanehisa and Goto}}{{ Kanehisa, Goto}}}
\bibcite{Kelder12}{{28}{2012}{{Kelder}}{{ Kelder, Iersel, Hanspers, Kutmon, M., Conklin, B., Evelo, C., Pico}}}
\bibcite{LeNovere09}{{29}{2009}{{Le Nov{\`e}re {\em  et~al.}}}{{ Le Nov{\`e}re, Hucka, Mi, {\em  et~al.}}}}
\bibcite{Martin04}{{30}{2004}{{Martin {\em  et~al.}}}{{ Martin, Burstein, Hobbs, {\em  et~al.}}}}
\bibcite{Nagasaki09}{{31}{2009}{{Nagasaki {\em  et~al.}}}{{ Nagasaki, Saito, Doi, Matsuno, Miyano}}}
\bibcite{Rodchenkov13}{{32}{2013}{{Rodchenkov {\em  et~al.}}}{{ Rodchenkov, Demir, Sander, Bader}}}
\bibcite{Schaefer09}{{33}{2009}{{Schaefer {\em  et~al.}}}{{ Schaefer, Anthony, Krupa, Buchoff, Day, {\em  et~al.}}}}
\bibcite{Wooldridge09}{{34}{2009}{{Wooldridge}}{{ Wooldridge}}}
\global\@namedef{@lastpage@}{11}
